('D:\\crusher_all\\python\\crusher_shaft_6_v2\\build\\main_wind\\PYZ-00.pyz',
 [('os',
   'c:\\users\\123iv\\appdata\\local\\programs\\python\\python38-32\\lib\\os.py',
   'PYMODULE'),
  ('ntpath',
   'c:\\users\\123iv\\appdata\\local\\programs\\python\\python38-32\\lib\\ntpath.py',
   'PYMODULE'),
  ('string',
   'c:\\users\\123iv\\appdata\\local\\programs\\python\\python38-32\\lib\\string.py',
   'PYMODULE'),
  ('genericpath',
   'c:\\users\\123iv\\appdata\\local\\programs\\python\\python38-32\\lib\\genericpath.py',
   'PYMODULE'),
  ('posixpath',
   'c:\\users\\123iv\\appdata\\local\\programs\\python\\python38-32\\lib\\posixpath.py',
   'PYMODULE'),
  ('stat',
   'c:\\users\\123iv\\appdata\\local\\programs\\python\\python38-32\\lib\\stat.py',
   'PYMODULE'),
  ('ssl',
   'c:\\users\\123iv\\appdata\\local\\programs\\python\\python38-32\\lib\\ssl.py',
   'PYMODULE'),
  ('calendar',
   'c:\\users\\123iv\\appdata\\local\\programs\\python\\python38-32\\lib\\calendar.py',
   'PYMODULE'),
  ('argparse',
   'c:\\users\\123iv\\appdata\\local\\programs\\python\\python38-32\\lib\\argparse.py',
   'PYMODULE'),
  ('textwrap',
   'c:\\users\\123iv\\appdata\\local\\programs\\python\\python38-32\\lib\\textwrap.py',
   'PYMODULE'),
  ('gettext',
   'c:\\users\\123iv\\appdata\\local\\programs\\python\\python38-32\\lib\\gettext.py',
   'PYMODULE'),
  ('shutil',
   'c:\\users\\123iv\\appdata\\local\\programs\\python\\python38-32\\lib\\shutil.py',
   'PYMODULE'),
  ('zipfile',
   'c:\\users\\123iv\\appdata\\local\\programs\\python\\python38-32\\lib\\zipfile.py',
   'PYMODULE'),
  ('py_compile',
   'c:\\users\\123iv\\appdata\\local\\programs\\python\\python38-32\\lib\\py_compile.py',
   'PYMODULE'),
  ('importlib.machinery',
   'c:\\users\\123iv\\appdata\\local\\programs\\python\\python38-32\\lib\\importlib\\machinery.py',
   'PYMODULE'),
  ('importlib',
   'c:\\users\\123iv\\appdata\\local\\programs\\python\\python38-32\\lib\\importlib\\__init__.py',
   'PYMODULE'),
  ('importlib._bootstrap',
   'c:\\users\\123iv\\appdata\\local\\programs\\python\\python38-32\\lib\\importlib\\_bootstrap.py',
   'PYMODULE'),
  ('importlib._bootstrap_external',
   'c:\\users\\123iv\\appdata\\local\\programs\\python\\python38-32\\lib\\importlib\\_bootstrap_external.py',
   'PYMODULE'),
  ('importlib.metadata',
   'c:\\users\\123iv\\appdata\\local\\programs\\python\\python38-32\\lib\\importlib\\metadata.py',
   'PYMODULE'),
  ('importlib.abc',
   'c:\\users\\123iv\\appdata\\local\\programs\\python\\python38-32\\lib\\importlib\\abc.py',
   'PYMODULE'),
  ('configparser',
   'c:\\users\\123iv\\appdata\\local\\programs\\python\\python38-32\\lib\\configparser.py',
   'PYMODULE'),
  ('pathlib',
   'c:\\users\\123iv\\appdata\\local\\programs\\python\\python38-32\\lib\\pathlib.py',
   'PYMODULE'),
  ('urllib.parse',
   'c:\\users\\123iv\\appdata\\local\\programs\\python\\python38-32\\lib\\urllib\\parse.py',
   'PYMODULE'),
  ('urllib',
   'c:\\users\\123iv\\appdata\\local\\programs\\python\\python38-32\\lib\\urllib\\__init__.py',
   'PYMODULE'),
  ('email',
   'c:\\users\\123iv\\appdata\\local\\programs\\python\\python38-32\\lib\\email\\__init__.py',
   'PYMODULE'),
  ('email.parser',
   'c:\\users\\123iv\\appdata\\local\\programs\\python\\python38-32\\lib\\email\\parser.py',
   'PYMODULE'),
  ('email._policybase',
   'c:\\users\\123iv\\appdata\\local\\programs\\python\\python38-32\\lib\\email\\_policybase.py',
   'PYMODULE'),
  ('email.utils',
   'c:\\users\\123iv\\appdata\\local\\programs\\python\\python38-32\\lib\\email\\utils.py',
   'PYMODULE'),
  ('email._parseaddr',
   'c:\\users\\123iv\\appdata\\local\\programs\\python\\python38-32\\lib\\email\\_parseaddr.py',
   'PYMODULE'),
  ('email.feedparser',
   'c:\\users\\123iv\\appdata\\local\\programs\\python\\python38-32\\lib\\email\\feedparser.py',
   'PYMODULE'),
  ('email.message',
   'c:\\users\\123iv\\appdata\\local\\programs\\python\\python38-32\\lib\\email\\message.py',
   'PYMODULE'),
  ('email.policy',
   'c:\\users\\123iv\\appdata\\local\\programs\\python\\python38-32\\lib\\email\\policy.py',
   'PYMODULE'),
  ('email.contentmanager',
   'c:\\users\\123iv\\appdata\\local\\programs\\python\\python38-32\\lib\\email\\contentmanager.py',
   'PYMODULE'),
  ('email.quoprimime',
   'c:\\users\\123iv\\appdata\\local\\programs\\python\\python38-32\\lib\\email\\quoprimime.py',
   'PYMODULE'),
  ('email.headerregistry',
   'c:\\users\\123iv\\appdata\\local\\programs\\python\\python38-32\\lib\\email\\headerregistry.py',
   'PYMODULE'),
  ('email.iterators',
   'c:\\users\\123iv\\appdata\\local\\programs\\python\\python38-32\\lib\\email\\iterators.py',
   'PYMODULE'),
  ('email.generator',
   'c:\\users\\123iv\\appdata\\local\\programs\\python\\python38-32\\lib\\email\\generator.py',
   'PYMODULE'),
  ('email._encoded_words',
   'c:\\users\\123iv\\appdata\\local\\programs\\python\\python38-32\\lib\\email\\_encoded_words.py',
   'PYMODULE'),
  ('quopri',
   'c:\\users\\123iv\\appdata\\local\\programs\\python\\python38-32\\lib\\quopri.py',
   'PYMODULE'),
  ('getopt',
   'c:\\users\\123iv\\appdata\\local\\programs\\python\\python38-32\\lib\\getopt.py',
   'PYMODULE'),
  ('uu',
   'c:\\users\\123iv\\appdata\\local\\programs\\python\\python38-32\\lib\\uu.py',
   'PYMODULE'),
  ('optparse',
   'c:\\users\\123iv\\appdata\\local\\programs\\python\\python38-32\\lib\\optparse.py',
   'PYMODULE'),
  ('email._header_value_parser',
   'c:\\users\\123iv\\appdata\\local\\programs\\python\\python38-32\\lib\\email\\_header_value_parser.py',
   'PYMODULE'),
  ('email.header',
   'c:\\users\\123iv\\appdata\\local\\programs\\python\\python38-32\\lib\\email\\header.py',
   'PYMODULE'),
  ('email.base64mime',
   'c:\\users\\123iv\\appdata\\local\\programs\\python\\python38-32\\lib\\email\\base64mime.py',
   'PYMODULE'),
  ('email.charset',
   'c:\\users\\123iv\\appdata\\local\\programs\\python\\python38-32\\lib\\email\\charset.py',
   'PYMODULE'),
  ('email.encoders',
   'c:\\users\\123iv\\appdata\\local\\programs\\python\\python38-32\\lib\\email\\encoders.py',
   'PYMODULE'),
  ('email.errors',
   'c:\\users\\123iv\\appdata\\local\\programs\\python\\python38-32\\lib\\email\\errors.py',
   'PYMODULE'),
  ('csv',
   'c:\\users\\123iv\\appdata\\local\\programs\\python\\python38-32\\lib\\csv.py',
   'PYMODULE'),
  ('tokenize',
   'c:\\users\\123iv\\appdata\\local\\programs\\python\\python38-32\\lib\\tokenize.py',
   'PYMODULE'),
  ('token',
   'c:\\users\\123iv\\appdata\\local\\programs\\python\\python38-32\\lib\\token.py',
   'PYMODULE'),
  ('contextlib',
   'c:\\users\\123iv\\appdata\\local\\programs\\python\\python38-32\\lib\\contextlib.py',
   'PYMODULE'),
  ('threading',
   'c:\\users\\123iv\\appdata\\local\\programs\\python\\python38-32\\lib\\threading.py',
   'PYMODULE'),
  ('_threading_local',
   'c:\\users\\123iv\\appdata\\local\\programs\\python\\python38-32\\lib\\_threading_local.py',
   'PYMODULE'),
  ('importlib.util',
   'c:\\users\\123iv\\appdata\\local\\programs\\python\\python38-32\\lib\\importlib\\util.py',
   'PYMODULE'),
  ('tarfile',
   'c:\\users\\123iv\\appdata\\local\\programs\\python\\python38-32\\lib\\tarfile.py',
   'PYMODULE'),
  ('gzip',
   'c:\\users\\123iv\\appdata\\local\\programs\\python\\python38-32\\lib\\gzip.py',
   'PYMODULE'),
  ('_compression',
   'c:\\users\\123iv\\appdata\\local\\programs\\python\\python38-32\\lib\\_compression.py',
   'PYMODULE'),
  ('lzma',
   'c:\\users\\123iv\\appdata\\local\\programs\\python\\python38-32\\lib\\lzma.py',
   'PYMODULE'),
  ('bz2',
   'c:\\users\\123iv\\appdata\\local\\programs\\python\\python38-32\\lib\\bz2.py',
   'PYMODULE'),
  ('fnmatch',
   'c:\\users\\123iv\\appdata\\local\\programs\\python\\python38-32\\lib\\fnmatch.py',
   'PYMODULE'),
  ('datetime',
   'c:\\users\\123iv\\appdata\\local\\programs\\python\\python38-32\\lib\\datetime.py',
   'PYMODULE'),
  ('_strptime',
   'c:\\users\\123iv\\appdata\\local\\programs\\python\\python38-32\\lib\\_strptime.py',
   'PYMODULE'),
  ('base64',
   'c:\\users\\123iv\\appdata\\local\\programs\\python\\python38-32\\lib\\base64.py',
   'PYMODULE'),
  ('multiprocessing.popen_fork',
   'c:\\users\\123iv\\appdata\\local\\programs\\python\\python38-32\\lib\\multiprocessing\\popen_fork.py',
   'PYMODULE'),
  ('multiprocessing.connection',
   'c:\\users\\123iv\\appdata\\local\\programs\\python\\python38-32\\lib\\multiprocessing\\connection.py',
   'PYMODULE'),
  ('multiprocessing.resource_sharer',
   'c:\\users\\123iv\\appdata\\local\\programs\\python\\python38-32\\lib\\multiprocessing\\resource_sharer.py',
   'PYMODULE'),
  ('multiprocessing.process',
   'c:\\users\\123iv\\appdata\\local\\programs\\python\\python38-32\\lib\\multiprocessing\\process.py',
   'PYMODULE'),
  ('selectors',
   'c:\\users\\123iv\\appdata\\local\\programs\\python\\python38-32\\lib\\selectors.py',
   'PYMODULE'),
  ('xmlrpc.client',
   'c:\\users\\123iv\\appdata\\local\\programs\\python\\python38-32\\lib\\xmlrpc\\client.py',
   'PYMODULE'),
  ('xmlrpc',
   'c:\\users\\123iv\\appdata\\local\\programs\\python\\python38-32\\lib\\xmlrpc\\__init__.py',
   'PYMODULE'),
  ('xml.parsers.expat',
   'c:\\users\\123iv\\appdata\\local\\programs\\python\\python38-32\\lib\\xml\\parsers\\expat.py',
   'PYMODULE'),
  ('xml.parsers',
   'c:\\users\\123iv\\appdata\\local\\programs\\python\\python38-32\\lib\\xml\\parsers\\__init__.py',
   'PYMODULE'),
  ('xml',
   'c:\\users\\123iv\\appdata\\local\\programs\\python\\python38-32\\lib\\xml\\__init__.py',
   'PYMODULE'),
  ('xml.sax.expatreader',
   'c:\\users\\123iv\\appdata\\local\\programs\\python\\python38-32\\lib\\xml\\sax\\expatreader.py',
   'PYMODULE'),
  ('xml.sax.saxutils',
   'c:\\users\\123iv\\appdata\\local\\programs\\python\\python38-32\\lib\\xml\\sax\\saxutils.py',
   'PYMODULE'),
  ('urllib.request',
   'c:\\users\\123iv\\appdata\\local\\programs\\python\\python38-32\\lib\\urllib\\request.py',
   'PYMODULE'),
  ('getpass',
   'c:\\users\\123iv\\appdata\\local\\programs\\python\\python38-32\\lib\\getpass.py',
   'PYMODULE'),
  ('nturl2path',
   'c:\\users\\123iv\\appdata\\local\\programs\\python\\python38-32\\lib\\nturl2path.py',
   'PYMODULE'),
  ('ftplib',
   'c:\\users\\123iv\\appdata\\local\\programs\\python\\python38-32\\lib\\ftplib.py',
   'PYMODULE'),
  ('netrc',
   'c:\\users\\123iv\\appdata\\local\\programs\\python\\python38-32\\lib\\netrc.py',
   'PYMODULE'),
  ('shlex',
   'c:\\users\\123iv\\appdata\\local\\programs\\python\\python38-32\\lib\\shlex.py',
   'PYMODULE'),
  ('mimetypes',
   'c:\\users\\123iv\\appdata\\local\\programs\\python\\python38-32\\lib\\mimetypes.py',
   'PYMODULE'),
  ('http.cookiejar',
   'c:\\users\\123iv\\appdata\\local\\programs\\python\\python38-32\\lib\\http\\cookiejar.py',
   'PYMODULE'),
  ('http',
   'c:\\users\\123iv\\appdata\\local\\programs\\python\\python38-32\\lib\\http\\__init__.py',
   'PYMODULE'),
  ('logging',
   'c:\\users\\123iv\\appdata\\local\\programs\\python\\python38-32\\lib\\logging\\__init__.py',
   'PYMODULE'),
  ('urllib.response',
   'c:\\users\\123iv\\appdata\\local\\programs\\python\\python38-32\\lib\\urllib\\response.py',
   'PYMODULE'),
  ('urllib.error',
   'c:\\users\\123iv\\appdata\\local\\programs\\python\\python38-32\\lib\\urllib\\error.py',
   'PYMODULE'),
  ('hashlib',
   'c:\\users\\123iv\\appdata\\local\\programs\\python\\python38-32\\lib\\hashlib.py',
   'PYMODULE'),
  ('bisect',
   'c:\\users\\123iv\\appdata\\local\\programs\\python\\python38-32\\lib\\bisect.py',
   'PYMODULE'),
  ('xml.sax',
   'c:\\users\\123iv\\appdata\\local\\programs\\python\\python38-32\\lib\\xml\\sax\\__init__.py',
   'PYMODULE'),
  ('xml.sax.handler',
   'c:\\users\\123iv\\appdata\\local\\programs\\python\\python38-32\\lib\\xml\\sax\\handler.py',
   'PYMODULE'),
  ('xml.sax._exceptions',
   'c:\\users\\123iv\\appdata\\local\\programs\\python\\python38-32\\lib\\xml\\sax\\_exceptions.py',
   'PYMODULE'),
  ('xml.sax.xmlreader',
   'c:\\users\\123iv\\appdata\\local\\programs\\python\\python38-32\\lib\\xml\\sax\\xmlreader.py',
   'PYMODULE'),
  ('http.client',
   'c:\\users\\123iv\\appdata\\local\\programs\\python\\python38-32\\lib\\http\\client.py',
   'PYMODULE'),
  ('decimal',
   'c:\\users\\123iv\\appdata\\local\\programs\\python\\python38-32\\lib\\decimal.py',
   'PYMODULE'),
  ('_pydecimal',
   'c:\\users\\123iv\\appdata\\local\\programs\\python\\python38-32\\lib\\_pydecimal.py',
   'PYMODULE'),
  ('contextvars',
   'c:\\users\\123iv\\appdata\\local\\programs\\python\\python38-32\\lib\\contextvars.py',
   'PYMODULE'),
  ('numbers',
   'c:\\users\\123iv\\appdata\\local\\programs\\python\\python38-32\\lib\\numbers.py',
   'PYMODULE'),
  ('hmac',
   'c:\\users\\123iv\\appdata\\local\\programs\\python\\python38-32\\lib\\hmac.py',
   'PYMODULE'),
  ('multiprocessing.context',
   'c:\\users\\123iv\\appdata\\local\\programs\\python\\python38-32\\lib\\multiprocessing\\context.py',
   'PYMODULE'),
  ('multiprocessing.popen_forkserver',
   'c:\\users\\123iv\\appdata\\local\\programs\\python\\python38-32\\lib\\multiprocessing\\popen_forkserver.py',
   'PYMODULE'),
  ('multiprocessing.popen_spawn_posix',
   'c:\\users\\123iv\\appdata\\local\\programs\\python\\python38-32\\lib\\multiprocessing\\popen_spawn_posix.py',
   'PYMODULE'),
  ('multiprocessing.resource_tracker',
   'c:\\users\\123iv\\appdata\\local\\programs\\python\\python38-32\\lib\\multiprocessing\\resource_tracker.py',
   'PYMODULE'),
  ('multiprocessing.forkserver',
   'c:\\users\\123iv\\appdata\\local\\programs\\python\\python38-32\\lib\\multiprocessing\\forkserver.py',
   'PYMODULE'),
  ('multiprocessing.sharedctypes',
   'c:\\users\\123iv\\appdata\\local\\programs\\python\\python38-32\\lib\\multiprocessing\\sharedctypes.py',
   'PYMODULE'),
  ('multiprocessing.heap',
   'c:\\users\\123iv\\appdata\\local\\programs\\python\\python38-32\\lib\\multiprocessing\\heap.py',
   'PYMODULE'),
  ('ctypes',
   'c:\\users\\123iv\\appdata\\local\\programs\\python\\python38-32\\lib\\ctypes\\__init__.py',
   'PYMODULE'),
  ('ctypes._endian',
   'c:\\users\\123iv\\appdata\\local\\programs\\python\\python38-32\\lib\\ctypes\\_endian.py',
   'PYMODULE'),
  ('multiprocessing.pool',
   'c:\\users\\123iv\\appdata\\local\\programs\\python\\python38-32\\lib\\multiprocessing\\pool.py',
   'PYMODULE'),
  ('multiprocessing.dummy',
   'c:\\users\\123iv\\appdata\\local\\programs\\python\\python38-32\\lib\\multiprocessing\\dummy\\__init__.py',
   'PYMODULE'),
  ('multiprocessing.dummy.connection',
   'c:\\users\\123iv\\appdata\\local\\programs\\python\\python38-32\\lib\\multiprocessing\\dummy\\connection.py',
   'PYMODULE'),
  ('queue',
   'c:\\users\\123iv\\appdata\\local\\programs\\python\\python38-32\\lib\\queue.py',
   'PYMODULE'),
  ('multiprocessing.queues',
   'c:\\users\\123iv\\appdata\\local\\programs\\python\\python38-32\\lib\\multiprocessing\\queues.py',
   'PYMODULE'),
  ('multiprocessing.synchronize',
   'c:\\users\\123iv\\appdata\\local\\programs\\python\\python38-32\\lib\\multiprocessing\\synchronize.py',
   'PYMODULE'),
  ('multiprocessing.managers',
   'c:\\users\\123iv\\appdata\\local\\programs\\python\\python38-32\\lib\\multiprocessing\\managers.py',
   'PYMODULE'),
  ('multiprocessing.shared_memory',
   'c:\\users\\123iv\\appdata\\local\\programs\\python\\python38-32\\lib\\multiprocessing\\shared_memory.py',
   'PYMODULE'),
  ('secrets',
   'c:\\users\\123iv\\appdata\\local\\programs\\python\\python38-32\\lib\\secrets.py',
   'PYMODULE'),
  ('multiprocessing.reduction',
   'c:\\users\\123iv\\appdata\\local\\programs\\python\\python38-32\\lib\\multiprocessing\\reduction.py',
   'PYMODULE'),
  ('tempfile',
   'c:\\users\\123iv\\appdata\\local\\programs\\python\\python38-32\\lib\\tempfile.py',
   'PYMODULE'),
  ('multiprocessing.util',
   'c:\\users\\123iv\\appdata\\local\\programs\\python\\python38-32\\lib\\multiprocessing\\util.py',
   'PYMODULE'),
  ('test.support',
   'c:\\users\\123iv\\appdata\\local\\programs\\python\\python38-32\\lib\\test\\support\\__init__.py',
   'PYMODULE'),
  ('distutils.spawn',
   'c:\\users\\123iv\\appdata\\local\\programs\\python\\python38-32\\lib\\distutils\\spawn.py',
   'PYMODULE'),
  ('distutils.log',
   'c:\\users\\123iv\\appdata\\local\\programs\\python\\python38-32\\lib\\distutils\\log.py',
   'PYMODULE'),
  ('distutils.debug',
   'c:\\users\\123iv\\appdata\\local\\programs\\python\\python38-32\\lib\\distutils\\debug.py',
   'PYMODULE'),
  ('distutils.errors',
   'c:\\users\\123iv\\appdata\\local\\programs\\python\\python38-32\\lib\\distutils\\errors.py',
   'PYMODULE'),
  ('distutils.sysconfig',
   'c:\\users\\123iv\\appdata\\local\\programs\\python\\python38-32\\lib\\distutils\\sysconfig.py',
   'PYMODULE'),
  ('distutils.text_file',
   'c:\\users\\123iv\\appdata\\local\\programs\\python\\python38-32\\lib\\distutils\\text_file.py',
   'PYMODULE'),
  ('_osx_support',
   'c:\\users\\123iv\\appdata\\local\\programs\\python\\python38-32\\lib\\_osx_support.py',
   'PYMODULE'),
  ('distutils.util',
   'c:\\users\\123iv\\appdata\\local\\programs\\python\\python38-32\\lib\\distutils\\util.py',
   'PYMODULE'),
  ('distutils.filelist',
   'c:\\users\\123iv\\appdata\\local\\programs\\python\\python38-32\\lib\\distutils\\filelist.py',
   'PYMODULE'),
  ('distutils.file_util',
   'c:\\users\\123iv\\appdata\\local\\programs\\python\\python38-32\\lib\\distutils\\file_util.py',
   'PYMODULE'),
  ('distutils.dir_util',
   'c:\\users\\123iv\\appdata\\local\\programs\\python\\python38-32\\lib\\distutils\\dir_util.py',
   'PYMODULE'),
  ('lib2to3.refactor',
   'c:\\users\\123iv\\appdata\\local\\programs\\python\\python38-32\\lib\\lib2to3\\refactor.py',
   'PYMODULE'),
  ('lib2to3.btm_matcher',
   'c:\\users\\123iv\\appdata\\local\\programs\\python\\python38-32\\lib\\lib2to3\\btm_matcher.py',
   'PYMODULE'),
  ('lib2to3.btm_utils',
   'c:\\users\\123iv\\appdata\\local\\programs\\python\\python38-32\\lib\\lib2to3\\btm_utils.py',
   'PYMODULE'),
  ('lib2to3.pgen2.grammar',
   'c:\\users\\123iv\\appdata\\local\\programs\\python\\python38-32\\lib\\lib2to3\\pgen2\\grammar.py',
   'PYMODULE'),
  ('pprint',
   'c:\\users\\123iv\\appdata\\local\\programs\\python\\python38-32\\lib\\pprint.py',
   'PYMODULE'),
  ('lib2to3.pygram',
   'c:\\users\\123iv\\appdata\\local\\programs\\python\\python38-32\\lib\\lib2to3\\pygram.py',
   'PYMODULE'),
  ('lib2to3.pytree',
   'c:\\users\\123iv\\appdata\\local\\programs\\python\\python38-32\\lib\\lib2to3\\pytree.py',
   'PYMODULE'),
  ('lib2to3',
   'c:\\users\\123iv\\appdata\\local\\programs\\python\\python38-32\\lib\\lib2to3\\__init__.py',
   'PYMODULE'),
  ('lib2to3.patcomp',
   'c:\\users\\123iv\\appdata\\local\\programs\\python\\python38-32\\lib\\lib2to3\\patcomp.py',
   'PYMODULE'),
  ('lib2to3.pgen2.parse',
   'c:\\users\\123iv\\appdata\\local\\programs\\python\\python38-32\\lib\\lib2to3\\pgen2\\parse.py',
   'PYMODULE'),
  ('lib2to3.pgen2.literals',
   'c:\\users\\123iv\\appdata\\local\\programs\\python\\python38-32\\lib\\lib2to3\\pgen2\\literals.py',
   'PYMODULE'),
  ('lib2to3.fixer_util',
   'c:\\users\\123iv\\appdata\\local\\programs\\python\\python38-32\\lib\\lib2to3\\fixer_util.py',
   'PYMODULE'),
  ('lib2to3.pgen2.token',
   'c:\\users\\123iv\\appdata\\local\\programs\\python\\python38-32\\lib\\lib2to3\\pgen2\\token.py',
   'PYMODULE'),
  ('lib2to3.pgen2.tokenize',
   'c:\\users\\123iv\\appdata\\local\\programs\\python\\python38-32\\lib\\lib2to3\\pgen2\\tokenize.py',
   'PYMODULE'),
  ('lib2to3.pgen2.driver',
   'c:\\users\\123iv\\appdata\\local\\programs\\python\\python38-32\\lib\\lib2to3\\pgen2\\driver.py',
   'PYMODULE'),
  ('lib2to3.pgen2.pgen',
   'c:\\users\\123iv\\appdata\\local\\programs\\python\\python38-32\\lib\\lib2to3\\pgen2\\pgen.py',
   'PYMODULE'),
  ('lib2to3.pgen2',
   'c:\\users\\123iv\\appdata\\local\\programs\\python\\python38-32\\lib\\lib2to3\\pgen2\\__init__.py',
   'PYMODULE'),
  ('pkgutil',
   'c:\\users\\123iv\\appdata\\local\\programs\\python\\python38-32\\lib\\pkgutil.py',
   'PYMODULE'),
  ('zipimport',
   'c:\\users\\123iv\\appdata\\local\\programs\\python\\python38-32\\lib\\zipimport.py',
   'PYMODULE'),
  ('inspect',
   'c:\\users\\123iv\\appdata\\local\\programs\\python\\python38-32\\lib\\inspect.py',
   'PYMODULE'),
  ('ast',
   'c:\\users\\123iv\\appdata\\local\\programs\\python\\python38-32\\lib\\ast.py',
   'PYMODULE'),
  ('dis',
   'c:\\users\\123iv\\appdata\\local\\programs\\python\\python38-32\\lib\\dis.py',
   'PYMODULE'),
  ('opcode',
   'c:\\users\\123iv\\appdata\\local\\programs\\python\\python38-32\\lib\\opcode.py',
   'PYMODULE'),
  ('distutils.dep_util',
   'c:\\users\\123iv\\appdata\\local\\programs\\python\\python38-32\\lib\\distutils\\dep_util.py',
   'PYMODULE'),
  ('distutils.ccompiler',
   'c:\\users\\123iv\\appdata\\local\\programs\\python\\python38-32\\lib\\distutils\\ccompiler.py',
   'PYMODULE'),
  ('distutils.fancy_getopt',
   'c:\\users\\123iv\\appdata\\local\\programs\\python\\python38-32\\lib\\distutils\\fancy_getopt.py',
   'PYMODULE'),
  ('distutils',
   'c:\\users\\123iv\\appdata\\local\\programs\\python\\python38-32\\lib\\distutils\\__init__.py',
   'PYMODULE'),
  ('tracemalloc',
   'c:\\users\\123iv\\appdata\\local\\programs\\python\\python38-32\\lib\\tracemalloc.py',
   'PYMODULE'),
  ('doctest',
   'c:\\users\\123iv\\appdata\\local\\programs\\python\\python38-32\\lib\\doctest.py',
   'PYMODULE'),
  ('pdb',
   'c:\\users\\123iv\\appdata\\local\\programs\\python\\python38-32\\lib\\pdb.py',
   'PYMODULE'),
  ('pydoc',
   'c:\\users\\123iv\\appdata\\local\\programs\\python\\python38-32\\lib\\pydoc.py',
   'PYMODULE'),
  ('webbrowser',
   'c:\\users\\123iv\\appdata\\local\\programs\\python\\python38-32\\lib\\webbrowser.py',
   'PYMODULE'),
  ('http.server',
   'c:\\users\\123iv\\appdata\\local\\programs\\python\\python38-32\\lib\\http\\server.py',
   'PYMODULE'),
  ('socketserver',
   'c:\\users\\123iv\\appdata\\local\\programs\\python\\python38-32\\lib\\socketserver.py',
   'PYMODULE'),
  ('html',
   'c:\\users\\123iv\\appdata\\local\\programs\\python\\python38-32\\lib\\html\\__init__.py',
   'PYMODULE'),
  ('html.entities',
   'c:\\users\\123iv\\appdata\\local\\programs\\python\\python38-32\\lib\\html\\entities.py',
   'PYMODULE'),
  ('pydoc_data.topics',
   'c:\\users\\123iv\\appdata\\local\\programs\\python\\python38-32\\lib\\pydoc_data\\topics.py',
   'PYMODULE'),
  ('pydoc_data',
   'c:\\users\\123iv\\appdata\\local\\programs\\python\\python38-32\\lib\\pydoc_data\\__init__.py',
   'PYMODULE'),
  ('tty',
   'c:\\users\\123iv\\appdata\\local\\programs\\python\\python38-32\\lib\\tty.py',
   'PYMODULE'),
  ('runpy',
   'c:\\users\\123iv\\appdata\\local\\programs\\python\\python38-32\\lib\\runpy.py',
   'PYMODULE'),
  ('code',
   'c:\\users\\123iv\\appdata\\local\\programs\\python\\python38-32\\lib\\code.py',
   'PYMODULE'),
  ('codeop',
   'c:\\users\\123iv\\appdata\\local\\programs\\python\\python38-32\\lib\\codeop.py',
   'PYMODULE'),
  ('bdb',
   'c:\\users\\123iv\\appdata\\local\\programs\\python\\python38-32\\lib\\bdb.py',
   'PYMODULE'),
  ('cmd',
   'c:\\users\\123iv\\appdata\\local\\programs\\python\\python38-32\\lib\\cmd.py',
   'PYMODULE'),
  ('difflib',
   'c:\\users\\123iv\\appdata\\local\\programs\\python\\python38-32\\lib\\difflib.py',
   'PYMODULE'),
  ('__future__',
   'c:\\users\\123iv\\appdata\\local\\programs\\python\\python38-32\\lib\\__future__.py',
   'PYMODULE'),
  ('tkinter',
   'c:\\users\\123iv\\appdata\\local\\programs\\python\\python38-32\\lib\\tkinter\\__init__.py',
   'PYMODULE'),
  ('tkinter.constants',
   'c:\\users\\123iv\\appdata\\local\\programs\\python\\python38-32\\lib\\tkinter\\constants.py',
   'PYMODULE'),
  ('ctypes.util',
   'c:\\users\\123iv\\appdata\\local\\programs\\python\\python38-32\\lib\\ctypes\\util.py',
   'PYMODULE'),
  ('ctypes._aix',
   'c:\\users\\123iv\\appdata\\local\\programs\\python\\python38-32\\lib\\ctypes\\_aix.py',
   'PYMODULE'),
  ('ctypes.macholib.dyld',
   'c:\\users\\123iv\\appdata\\local\\programs\\python\\python38-32\\lib\\ctypes\\macholib\\dyld.py',
   'PYMODULE'),
  ('ctypes.macholib',
   'c:\\users\\123iv\\appdata\\local\\programs\\python\\python38-32\\lib\\ctypes\\macholib\\__init__.py',
   'PYMODULE'),
  ('ctypes.macholib.dylib',
   'c:\\users\\123iv\\appdata\\local\\programs\\python\\python38-32\\lib\\ctypes\\macholib\\dylib.py',
   'PYMODULE'),
  ('ctypes.macholib.framework',
   'c:\\users\\123iv\\appdata\\local\\programs\\python\\python38-32\\lib\\ctypes\\macholib\\framework.py',
   'PYMODULE'),
  ('ctypes.wintypes',
   'c:\\users\\123iv\\appdata\\local\\programs\\python\\python38-32\\lib\\ctypes\\wintypes.py',
   'PYMODULE'),
  ('test.support.testresult',
   'c:\\users\\123iv\\appdata\\local\\programs\\python\\python38-32\\lib\\test\\support\\testresult.py',
   'PYMODULE'),
  ('xml.etree.ElementTree',
   'c:\\users\\123iv\\appdata\\local\\programs\\python\\python38-32\\lib\\xml\\etree\\ElementTree.py',
   'PYMODULE'),
  ('xml.etree.cElementTree',
   'c:\\users\\123iv\\appdata\\local\\programs\\python\\python38-32\\lib\\xml\\etree\\cElementTree.py',
   'PYMODULE'),
  ('xml.etree.ElementInclude',
   'c:\\users\\123iv\\appdata\\local\\programs\\python\\python38-32\\lib\\xml\\etree\\ElementInclude.py',
   'PYMODULE'),
  ('xml.etree.ElementPath',
   'c:\\users\\123iv\\appdata\\local\\programs\\python\\python38-32\\lib\\xml\\etree\\ElementPath.py',
   'PYMODULE'),
  ('xml.etree',
   'c:\\users\\123iv\\appdata\\local\\programs\\python\\python38-32\\lib\\xml\\etree\\__init__.py',
   'PYMODULE'),
  ('unittest',
   'c:\\users\\123iv\\appdata\\local\\programs\\python\\python38-32\\lib\\unittest\\__init__.py',
   'PYMODULE'),
  ('unittest.signals',
   'c:\\users\\123iv\\appdata\\local\\programs\\python\\python38-32\\lib\\unittest\\signals.py',
   'PYMODULE'),
  ('unittest.main',
   'c:\\users\\123iv\\appdata\\local\\programs\\python\\python38-32\\lib\\unittest\\main.py',
   'PYMODULE'),
  ('unittest.runner',
   'c:\\users\\123iv\\appdata\\local\\programs\\python\\python38-32\\lib\\unittest\\runner.py',
   'PYMODULE'),
  ('unittest.loader',
   'c:\\users\\123iv\\appdata\\local\\programs\\python\\python38-32\\lib\\unittest\\loader.py',
   'PYMODULE'),
  ('unittest.suite',
   'c:\\users\\123iv\\appdata\\local\\programs\\python\\python38-32\\lib\\unittest\\suite.py',
   'PYMODULE'),
  ('unittest.case',
   'c:\\users\\123iv\\appdata\\local\\programs\\python\\python38-32\\lib\\unittest\\case.py',
   'PYMODULE'),
  ('unittest.async_case',
   'c:\\users\\123iv\\appdata\\local\\programs\\python\\python38-32\\lib\\unittest\\async_case.py',
   'PYMODULE'),
  ('asyncio',
   'c:\\users\\123iv\\appdata\\local\\programs\\python\\python38-32\\lib\\asyncio\\__init__.py',
   'PYMODULE'),
  ('asyncio.unix_events',
   'c:\\users\\123iv\\appdata\\local\\programs\\python\\python38-32\\lib\\asyncio\\unix_events.py',
   'PYMODULE'),
  ('asyncio.log',
   'c:\\users\\123iv\\appdata\\local\\programs\\python\\python38-32\\lib\\asyncio\\log.py',
   'PYMODULE'),
  ('asyncio.windows_events',
   'c:\\users\\123iv\\appdata\\local\\programs\\python\\python38-32\\lib\\asyncio\\windows_events.py',
   'PYMODULE'),
  ('asyncio.windows_utils',
   'c:\\users\\123iv\\appdata\\local\\programs\\python\\python38-32\\lib\\asyncio\\windows_utils.py',
   'PYMODULE'),
  ('asyncio.selector_events',
   'c:\\users\\123iv\\appdata\\local\\programs\\python\\python38-32\\lib\\asyncio\\selector_events.py',
   'PYMODULE'),
  ('asyncio.proactor_events',
   'c:\\users\\123iv\\appdata\\local\\programs\\python\\python38-32\\lib\\asyncio\\proactor_events.py',
   'PYMODULE'),
  ('asyncio.base_subprocess',
   'c:\\users\\123iv\\appdata\\local\\programs\\python\\python38-32\\lib\\asyncio\\base_subprocess.py',
   'PYMODULE'),
  ('asyncio.subprocess',
   'c:\\users\\123iv\\appdata\\local\\programs\\python\\python38-32\\lib\\asyncio\\subprocess.py',
   'PYMODULE'),
  ('asyncio.streams',
   'c:\\users\\123iv\\appdata\\local\\programs\\python\\python38-32\\lib\\asyncio\\streams.py',
   'PYMODULE'),
  ('asyncio.queues',
   'c:\\users\\123iv\\appdata\\local\\programs\\python\\python38-32\\lib\\asyncio\\queues.py',
   'PYMODULE'),
  ('asyncio.runners',
   'c:\\users\\123iv\\appdata\\local\\programs\\python\\python38-32\\lib\\asyncio\\runners.py',
   'PYMODULE'),
  ('asyncio.trsock',
   'c:\\users\\123iv\\appdata\\local\\programs\\python\\python38-32\\lib\\asyncio\\trsock.py',
   'PYMODULE'),
  ('asyncio.staggered',
   'c:\\users\\123iv\\appdata\\local\\programs\\python\\python38-32\\lib\\asyncio\\staggered.py',
   'PYMODULE'),
  ('typing',
   'c:\\users\\123iv\\appdata\\local\\programs\\python\\python38-32\\lib\\typing.py',
   'PYMODULE'),
  ('asyncio.tasks',
   'c:\\users\\123iv\\appdata\\local\\programs\\python\\python38-32\\lib\\asyncio\\tasks.py',
   'PYMODULE'),
  ('concurrent.futures',
   'c:\\users\\123iv\\appdata\\local\\programs\\python\\python38-32\\lib\\concurrent\\futures\\__init__.py',
   'PYMODULE'),
  ('concurrent.futures.thread',
   'c:\\users\\123iv\\appdata\\local\\programs\\python\\python38-32\\lib\\concurrent\\futures\\thread.py',
   'PYMODULE'),
  ('concurrent.futures.process',
   'c:\\users\\123iv\\appdata\\local\\programs\\python\\python38-32\\lib\\concurrent\\futures\\process.py',
   'PYMODULE'),
  ('concurrent.futures._base',
   'c:\\users\\123iv\\appdata\\local\\programs\\python\\python38-32\\lib\\concurrent\\futures\\_base.py',
   'PYMODULE'),
  ('concurrent',
   'c:\\users\\123iv\\appdata\\local\\programs\\python\\python38-32\\lib\\concurrent\\__init__.py',
   'PYMODULE'),
  ('asyncio.base_tasks',
   'c:\\users\\123iv\\appdata\\local\\programs\\python\\python38-32\\lib\\asyncio\\base_tasks.py',
   'PYMODULE'),
  ('asyncio.locks',
   'c:\\users\\123iv\\appdata\\local\\programs\\python\\python38-32\\lib\\asyncio\\locks.py',
   'PYMODULE'),
  ('asyncio.sslproto',
   'c:\\users\\123iv\\appdata\\local\\programs\\python\\python38-32\\lib\\asyncio\\sslproto.py',
   'PYMODULE'),
  ('asyncio.transports',
   'c:\\users\\123iv\\appdata\\local\\programs\\python\\python38-32\\lib\\asyncio\\transports.py',
   'PYMODULE'),
  ('asyncio.base_events',
   'c:\\users\\123iv\\appdata\\local\\programs\\python\\python38-32\\lib\\asyncio\\base_events.py',
   'PYMODULE'),
  ('asyncio.protocols',
   'c:\\users\\123iv\\appdata\\local\\programs\\python\\python38-32\\lib\\asyncio\\protocols.py',
   'PYMODULE'),
  ('asyncio.futures',
   'c:\\users\\123iv\\appdata\\local\\programs\\python\\python38-32\\lib\\asyncio\\futures.py',
   'PYMODULE'),
  ('asyncio.coroutines',
   'c:\\users\\123iv\\appdata\\local\\programs\\python\\python38-32\\lib\\asyncio\\coroutines.py',
   'PYMODULE'),
  ('asyncio.base_futures',
   'c:\\users\\123iv\\appdata\\local\\programs\\python\\python38-32\\lib\\asyncio\\base_futures.py',
   'PYMODULE'),
  ('asyncio.exceptions',
   'c:\\users\\123iv\\appdata\\local\\programs\\python\\python38-32\\lib\\asyncio\\exceptions.py',
   'PYMODULE'),
  ('asyncio.format_helpers',
   'c:\\users\\123iv\\appdata\\local\\programs\\python\\python38-32\\lib\\asyncio\\format_helpers.py',
   'PYMODULE'),
  ('asyncio.constants',
   'c:\\users\\123iv\\appdata\\local\\programs\\python\\python38-32\\lib\\asyncio\\constants.py',
   'PYMODULE'),
  ('unittest.result',
   'c:\\users\\123iv\\appdata\\local\\programs\\python\\python38-32\\lib\\unittest\\result.py',
   'PYMODULE'),
  ('unittest.util',
   'c:\\users\\123iv\\appdata\\local\\programs\\python\\python38-32\\lib\\unittest\\util.py',
   'PYMODULE'),
  ('sysconfig',
   'c:\\users\\123iv\\appdata\\local\\programs\\python\\python38-32\\lib\\sysconfig.py',
   'PYMODULE'),
  ('platform',
   'c:\\users\\123iv\\appdata\\local\\programs\\python\\python38-32\\lib\\platform.py',
   'PYMODULE'),
  ('plistlib',
   'c:\\users\\123iv\\appdata\\local\\programs\\python\\python38-32\\lib\\plistlib.py',
   'PYMODULE'),
  ('nntplib',
   'c:\\users\\123iv\\appdata\\local\\programs\\python\\python38-32\\lib\\nntplib.py',
   'PYMODULE'),
  ('logging.handlers',
   'c:\\users\\123iv\\appdata\\local\\programs\\python\\python38-32\\lib\\logging\\handlers.py',
   'PYMODULE'),
  ('smtplib',
   'c:\\users\\123iv\\appdata\\local\\programs\\python\\python38-32\\lib\\smtplib.py',
   'PYMODULE'),
  ('glob',
   'c:\\users\\123iv\\appdata\\local\\programs\\python\\python38-32\\lib\\glob.py',
   'PYMODULE'),
  ('asyncio.events',
   'c:\\users\\123iv\\appdata\\local\\programs\\python\\python38-32\\lib\\asyncio\\events.py',
   'PYMODULE'),
  ('test',
   'c:\\users\\123iv\\appdata\\local\\programs\\python\\python38-32\\lib\\test\\__init__.py',
   'PYMODULE'),
  ('signal',
   'c:\\users\\123iv\\appdata\\local\\programs\\python\\python38-32\\lib\\signal.py',
   'PYMODULE'),
  ('multiprocessing.popen_spawn_win32',
   'c:\\users\\123iv\\appdata\\local\\programs\\python\\python38-32\\lib\\multiprocessing\\popen_spawn_win32.py',
   'PYMODULE'),
  ('multiprocessing.spawn',
   'c:\\users\\123iv\\appdata\\local\\programs\\python\\python38-32\\lib\\multiprocessing\\spawn.py',
   'PYMODULE'),
  ('multiprocessing',
   'c:\\users\\123iv\\appdata\\local\\programs\\python\\python38-32\\lib\\multiprocessing\\__init__.py',
   'PYMODULE'),
  ('stringprep',
   'c:\\users\\123iv\\appdata\\local\\programs\\python\\python38-32\\lib\\stringprep.py',
   'PYMODULE'),
  ('_py_abc',
   'c:\\users\\123iv\\appdata\\local\\programs\\python\\python38-32\\lib\\_py_abc.py',
   'PYMODULE'),
  ('random',
   'c:\\users\\123iv\\appdata\\local\\programs\\python\\python38-32\\lib\\random.py',
   'PYMODULE'),
  ('requests',
   'c:\\users\\123iv\\appdata\\local\\programs\\python\\python38-32\\lib\\site-packages\\requests\\__init__.py',
   'PYMODULE'),
  ('requests.status_codes',
   'c:\\users\\123iv\\appdata\\local\\programs\\python\\python38-32\\lib\\site-packages\\requests\\status_codes.py',
   'PYMODULE'),
  ('requests.structures',
   'c:\\users\\123iv\\appdata\\local\\programs\\python\\python38-32\\lib\\site-packages\\requests\\structures.py',
   'PYMODULE'),
  ('requests.compat',
   'c:\\users\\123iv\\appdata\\local\\programs\\python\\python38-32\\lib\\site-packages\\requests\\compat.py',
   'PYMODULE'),
  ('http.cookies',
   'c:\\users\\123iv\\appdata\\local\\programs\\python\\python38-32\\lib\\http\\cookies.py',
   'PYMODULE'),
  ('requests.api',
   'c:\\users\\123iv\\appdata\\local\\programs\\python\\python38-32\\lib\\site-packages\\requests\\api.py',
   'PYMODULE'),
  ('requests.sessions',
   'c:\\users\\123iv\\appdata\\local\\programs\\python\\python38-32\\lib\\site-packages\\requests\\sessions.py',
   'PYMODULE'),
  ('requests.adapters',
   'c:\\users\\123iv\\appdata\\local\\programs\\python\\python38-32\\lib\\site-packages\\requests\\adapters.py',
   'PYMODULE'),
  ('urllib3.contrib.socks',
   'c:\\users\\123iv\\appdata\\local\\programs\\python\\python38-32\\lib\\site-packages\\urllib3\\contrib\\socks.py',
   'PYMODULE'),
  ('urllib3.util.url',
   'c:\\users\\123iv\\appdata\\local\\programs\\python\\python38-32\\lib\\site-packages\\urllib3\\util\\url.py',
   'PYMODULE'),
  ('idna',
   'c:\\users\\123iv\\appdata\\local\\programs\\python\\python38-32\\lib\\site-packages\\idna\\__init__.py',
   'PYMODULE'),
  ('idna.core',
   'c:\\users\\123iv\\appdata\\local\\programs\\python\\python38-32\\lib\\site-packages\\idna\\core.py',
   'PYMODULE'),
  ('idna.uts46data',
   'c:\\users\\123iv\\appdata\\local\\programs\\python\\python38-32\\lib\\site-packages\\idna\\uts46data.py',
   'PYMODULE'),
  ('idna.intranges',
   'c:\\users\\123iv\\appdata\\local\\programs\\python\\python38-32\\lib\\site-packages\\idna\\intranges.py',
   'PYMODULE'),
  ('idna.idnadata',
   'c:\\users\\123iv\\appdata\\local\\programs\\python\\python38-32\\lib\\site-packages\\idna\\idnadata.py',
   'PYMODULE'),
  ('idna.package_data',
   'c:\\users\\123iv\\appdata\\local\\programs\\python\\python38-32\\lib\\site-packages\\idna\\package_data.py',
   'PYMODULE'),
  ('urllib3.packages.six',
   'c:\\users\\123iv\\appdata\\local\\programs\\python\\python38-32\\lib\\site-packages\\urllib3\\packages\\six.py',
   'PYMODULE'),
  ('urllib3.packages',
   'c:\\users\\123iv\\appdata\\local\\programs\\python\\python38-32\\lib\\site-packages\\urllib3\\packages\\__init__.py',
   'PYMODULE'),
  ('urllib3.packages.ssl_match_hostname',
   'c:\\users\\123iv\\appdata\\local\\programs\\python\\python38-32\\lib\\site-packages\\urllib3\\packages\\ssl_match_hostname\\__init__.py',
   'PYMODULE'),
  ('urllib3.packages.ssl_match_hostname._implementation',
   'c:\\users\\123iv\\appdata\\local\\programs\\python\\python38-32\\lib\\site-packages\\urllib3\\packages\\ssl_match_hostname\\_implementation.py',
   'PYMODULE'),
  ('ipaddress',
   'c:\\users\\123iv\\appdata\\local\\programs\\python\\python38-32\\lib\\ipaddress.py',
   'PYMODULE'),
  ('urllib3.connectionpool',
   'c:\\users\\123iv\\appdata\\local\\programs\\python\\python38-32\\lib\\site-packages\\urllib3\\connectionpool.py',
   'PYMODULE'),
  ('urllib3.util.queue',
   'c:\\users\\123iv\\appdata\\local\\programs\\python\\python38-32\\lib\\site-packages\\urllib3\\util\\queue.py',
   'PYMODULE'),
  ('urllib3.util.timeout',
   'c:\\users\\123iv\\appdata\\local\\programs\\python\\python38-32\\lib\\site-packages\\urllib3\\util\\timeout.py',
   'PYMODULE'),
  ('urllib3.util.response',
   'c:\\users\\123iv\\appdata\\local\\programs\\python\\python38-32\\lib\\site-packages\\urllib3\\util\\response.py',
   'PYMODULE'),
  ('urllib3.util.request',
   'c:\\users\\123iv\\appdata\\local\\programs\\python\\python38-32\\lib\\site-packages\\urllib3\\util\\request.py',
   'PYMODULE'),
  ('urllib3.util.connection',
   'c:\\users\\123iv\\appdata\\local\\programs\\python\\python38-32\\lib\\site-packages\\urllib3\\util\\connection.py',
   'PYMODULE'),
  ('urllib3.contrib._appengine_environ',
   'c:\\users\\123iv\\appdata\\local\\programs\\python\\python38-32\\lib\\site-packages\\urllib3\\contrib\\_appengine_environ.py',
   'PYMODULE'),
  ('urllib3.util.wait',
   'c:\\users\\123iv\\appdata\\local\\programs\\python\\python38-32\\lib\\site-packages\\urllib3\\util\\wait.py',
   'PYMODULE'),
  ('urllib3.request',
   'c:\\users\\123iv\\appdata\\local\\programs\\python\\python38-32\\lib\\site-packages\\urllib3\\request.py',
   'PYMODULE'),
  ('urllib3.filepost',
   'c:\\users\\123iv\\appdata\\local\\programs\\python\\python38-32\\lib\\site-packages\\urllib3\\filepost.py',
   'PYMODULE'),
  ('urllib3.fields',
   'c:\\users\\123iv\\appdata\\local\\programs\\python\\python38-32\\lib\\site-packages\\urllib3\\fields.py',
   'PYMODULE'),
  ('urllib3.connection',
   'c:\\users\\123iv\\appdata\\local\\programs\\python\\python38-32\\lib\\site-packages\\urllib3\\connection.py',
   'PYMODULE'),
  ('urllib3._collections',
   'c:\\users\\123iv\\appdata\\local\\programs\\python\\python38-32\\lib\\site-packages\\urllib3\\_collections.py',
   'PYMODULE'),
  ('urllib3.util.ssl_',
   'c:\\users\\123iv\\appdata\\local\\programs\\python\\python38-32\\lib\\site-packages\\urllib3\\util\\ssl_.py',
   'PYMODULE'),
  ('urllib3.util.retry',
   'c:\\users\\123iv\\appdata\\local\\programs\\python\\python38-32\\lib\\site-packages\\urllib3\\util\\retry.py',
   'PYMODULE'),
  ('urllib3.util',
   'c:\\users\\123iv\\appdata\\local\\programs\\python\\python38-32\\lib\\site-packages\\urllib3\\util\\__init__.py',
   'PYMODULE'),
  ('urllib3.response',
   'c:\\users\\123iv\\appdata\\local\\programs\\python\\python38-32\\lib\\site-packages\\urllib3\\response.py',
   'PYMODULE'),
  ('urllib3.poolmanager',
   'c:\\users\\123iv\\appdata\\local\\programs\\python\\python38-32\\lib\\site-packages\\urllib3\\poolmanager.py',
   'PYMODULE'),
  ('requests._internal_utils',
   'c:\\users\\123iv\\appdata\\local\\programs\\python\\python38-32\\lib\\site-packages\\requests\\_internal_utils.py',
   'PYMODULE'),
  ('requests.hooks',
   'c:\\users\\123iv\\appdata\\local\\programs\\python\\python38-32\\lib\\site-packages\\requests\\hooks.py',
   'PYMODULE'),
  ('requests.cookies',
   'c:\\users\\123iv\\appdata\\local\\programs\\python\\python38-32\\lib\\site-packages\\requests\\cookies.py',
   'PYMODULE'),
  ('dummy_threading',
   'c:\\users\\123iv\\appdata\\local\\programs\\python\\python38-32\\lib\\dummy_threading.py',
   'PYMODULE'),
  ('_dummy_thread',
   'c:\\users\\123iv\\appdata\\local\\programs\\python\\python38-32\\lib\\_dummy_thread.py',
   'PYMODULE'),
  ('requests.auth',
   'c:\\users\\123iv\\appdata\\local\\programs\\python\\python38-32\\lib\\site-packages\\requests\\auth.py',
   'PYMODULE'),
  ('requests.models',
   'c:\\users\\123iv\\appdata\\local\\programs\\python\\python38-32\\lib\\site-packages\\requests\\models.py',
   'PYMODULE'),
  ('requests.packages',
   'c:\\users\\123iv\\appdata\\local\\programs\\python\\python38-32\\lib\\site-packages\\requests\\packages.py',
   'PYMODULE'),
  ('requests.utils',
   'c:\\users\\123iv\\appdata\\local\\programs\\python\\python38-32\\lib\\site-packages\\requests\\utils.py',
   'PYMODULE'),
  ('requests.certs',
   'c:\\users\\123iv\\appdata\\local\\programs\\python\\python38-32\\lib\\site-packages\\requests\\certs.py',
   'PYMODULE'),
  ('certifi',
   'c:\\users\\123iv\\appdata\\local\\programs\\python\\python38-32\\lib\\site-packages\\certifi\\__init__.py',
   'PYMODULE'),
  ('certifi.core',
   'c:\\users\\123iv\\appdata\\local\\programs\\python\\python38-32\\lib\\site-packages\\certifi\\core.py',
   'PYMODULE'),
  ('importlib.resources',
   'c:\\users\\123iv\\appdata\\local\\programs\\python\\python38-32\\lib\\importlib\\resources.py',
   'PYMODULE'),
  ('requests.__version__',
   'c:\\users\\123iv\\appdata\\local\\programs\\python\\python38-32\\lib\\site-packages\\requests\\__version__.py',
   'PYMODULE'),
  ('urllib3.exceptions',
   'c:\\users\\123iv\\appdata\\local\\programs\\python\\python38-32\\lib\\site-packages\\urllib3\\exceptions.py',
   'PYMODULE'),
  ('urllib3.contrib.pyopenssl',
   'c:\\users\\123iv\\appdata\\local\\programs\\python\\python38-32\\lib\\site-packages\\urllib3\\contrib\\pyopenssl.py',
   'PYMODULE'),
  ('urllib3.packages.backports.makefile',
   'c:\\users\\123iv\\appdata\\local\\programs\\python\\python38-32\\lib\\site-packages\\urllib3\\packages\\backports\\makefile.py',
   'PYMODULE'),
  ('urllib3.packages.backports',
   'c:\\users\\123iv\\appdata\\local\\programs\\python\\python38-32\\lib\\site-packages\\urllib3\\packages\\backports\\__init__.py',
   'PYMODULE'),
  ('urllib3.contrib',
   'c:\\users\\123iv\\appdata\\local\\programs\\python\\python38-32\\lib\\site-packages\\urllib3\\contrib\\__init__.py',
   'PYMODULE'),
  ('requests.exceptions',
   'c:\\users\\123iv\\appdata\\local\\programs\\python\\python38-32\\lib\\site-packages\\requests\\exceptions.py',
   'PYMODULE'),
  ('chardet',
   'c:\\users\\123iv\\appdata\\local\\programs\\python\\python38-32\\lib\\site-packages\\chardet\\__init__.py',
   'PYMODULE'),
  ('chardet.version',
   'c:\\users\\123iv\\appdata\\local\\programs\\python\\python38-32\\lib\\site-packages\\chardet\\version.py',
   'PYMODULE'),
  ('chardet.universaldetector',
   'c:\\users\\123iv\\appdata\\local\\programs\\python\\python38-32\\lib\\site-packages\\chardet\\universaldetector.py',
   'PYMODULE'),
  ('chardet.sbcsgroupprober',
   'c:\\users\\123iv\\appdata\\local\\programs\\python\\python38-32\\lib\\site-packages\\chardet\\sbcsgroupprober.py',
   'PYMODULE'),
  ('chardet.langturkishmodel',
   'c:\\users\\123iv\\appdata\\local\\programs\\python\\python38-32\\lib\\site-packages\\chardet\\langturkishmodel.py',
   'PYMODULE'),
  ('chardet.hebrewprober',
   'c:\\users\\123iv\\appdata\\local\\programs\\python\\python38-32\\lib\\site-packages\\chardet\\hebrewprober.py',
   'PYMODULE'),
  ('chardet.charsetprober',
   'c:\\users\\123iv\\appdata\\local\\programs\\python\\python38-32\\lib\\site-packages\\chardet\\charsetprober.py',
   'PYMODULE'),
  ('chardet.langhebrewmodel',
   'c:\\users\\123iv\\appdata\\local\\programs\\python\\python38-32\\lib\\site-packages\\chardet\\langhebrewmodel.py',
   'PYMODULE'),
  ('chardet.langthaimodel',
   'c:\\users\\123iv\\appdata\\local\\programs\\python\\python38-32\\lib\\site-packages\\chardet\\langthaimodel.py',
   'PYMODULE'),
  ('chardet.langbulgarianmodel',
   'c:\\users\\123iv\\appdata\\local\\programs\\python\\python38-32\\lib\\site-packages\\chardet\\langbulgarianmodel.py',
   'PYMODULE'),
  ('chardet.langgreekmodel',
   'c:\\users\\123iv\\appdata\\local\\programs\\python\\python38-32\\lib\\site-packages\\chardet\\langgreekmodel.py',
   'PYMODULE'),
  ('chardet.langcyrillicmodel',
   'c:\\users\\123iv\\appdata\\local\\programs\\python\\python38-32\\lib\\site-packages\\chardet\\langcyrillicmodel.py',
   'PYMODULE'),
  ('chardet.sbcharsetprober',
   'c:\\users\\123iv\\appdata\\local\\programs\\python\\python38-32\\lib\\site-packages\\chardet\\sbcharsetprober.py',
   'PYMODULE'),
  ('chardet.mbcsgroupprober',
   'c:\\users\\123iv\\appdata\\local\\programs\\python\\python38-32\\lib\\site-packages\\chardet\\mbcsgroupprober.py',
   'PYMODULE'),
  ('chardet.euctwprober',
   'c:\\users\\123iv\\appdata\\local\\programs\\python\\python38-32\\lib\\site-packages\\chardet\\euctwprober.py',
   'PYMODULE'),
  ('chardet.mbcssm',
   'c:\\users\\123iv\\appdata\\local\\programs\\python\\python38-32\\lib\\site-packages\\chardet\\mbcssm.py',
   'PYMODULE'),
  ('chardet.chardistribution',
   'c:\\users\\123iv\\appdata\\local\\programs\\python\\python38-32\\lib\\site-packages\\chardet\\chardistribution.py',
   'PYMODULE'),
  ('chardet.jisfreq',
   'c:\\users\\123iv\\appdata\\local\\programs\\python\\python38-32\\lib\\site-packages\\chardet\\jisfreq.py',
   'PYMODULE'),
  ('chardet.big5freq',
   'c:\\users\\123iv\\appdata\\local\\programs\\python\\python38-32\\lib\\site-packages\\chardet\\big5freq.py',
   'PYMODULE'),
  ('chardet.gb2312freq',
   'c:\\users\\123iv\\appdata\\local\\programs\\python\\python38-32\\lib\\site-packages\\chardet\\gb2312freq.py',
   'PYMODULE'),
  ('chardet.euckrfreq',
   'c:\\users\\123iv\\appdata\\local\\programs\\python\\python38-32\\lib\\site-packages\\chardet\\euckrfreq.py',
   'PYMODULE'),
  ('chardet.euctwfreq',
   'c:\\users\\123iv\\appdata\\local\\programs\\python\\python38-32\\lib\\site-packages\\chardet\\euctwfreq.py',
   'PYMODULE'),
  ('chardet.codingstatemachine',
   'c:\\users\\123iv\\appdata\\local\\programs\\python\\python38-32\\lib\\site-packages\\chardet\\codingstatemachine.py',
   'PYMODULE'),
  ('chardet.mbcharsetprober',
   'c:\\users\\123iv\\appdata\\local\\programs\\python\\python38-32\\lib\\site-packages\\chardet\\mbcharsetprober.py',
   'PYMODULE'),
  ('chardet.big5prober',
   'c:\\users\\123iv\\appdata\\local\\programs\\python\\python38-32\\lib\\site-packages\\chardet\\big5prober.py',
   'PYMODULE'),
  ('chardet.cp949prober',
   'c:\\users\\123iv\\appdata\\local\\programs\\python\\python38-32\\lib\\site-packages\\chardet\\cp949prober.py',
   'PYMODULE'),
  ('chardet.euckrprober',
   'c:\\users\\123iv\\appdata\\local\\programs\\python\\python38-32\\lib\\site-packages\\chardet\\euckrprober.py',
   'PYMODULE'),
  ('chardet.gb2312prober',
   'c:\\users\\123iv\\appdata\\local\\programs\\python\\python38-32\\lib\\site-packages\\chardet\\gb2312prober.py',
   'PYMODULE'),
  ('chardet.eucjpprober',
   'c:\\users\\123iv\\appdata\\local\\programs\\python\\python38-32\\lib\\site-packages\\chardet\\eucjpprober.py',
   'PYMODULE'),
  ('chardet.jpcntx',
   'c:\\users\\123iv\\appdata\\local\\programs\\python\\python38-32\\lib\\site-packages\\chardet\\jpcntx.py',
   'PYMODULE'),
  ('chardet.sjisprober',
   'c:\\users\\123iv\\appdata\\local\\programs\\python\\python38-32\\lib\\site-packages\\chardet\\sjisprober.py',
   'PYMODULE'),
  ('chardet.utf8prober',
   'c:\\users\\123iv\\appdata\\local\\programs\\python\\python38-32\\lib\\site-packages\\chardet\\utf8prober.py',
   'PYMODULE'),
  ('chardet.latin1prober',
   'c:\\users\\123iv\\appdata\\local\\programs\\python\\python38-32\\lib\\site-packages\\chardet\\latin1prober.py',
   'PYMODULE'),
  ('chardet.escprober',
   'c:\\users\\123iv\\appdata\\local\\programs\\python\\python38-32\\lib\\site-packages\\chardet\\escprober.py',
   'PYMODULE'),
  ('chardet.escsm',
   'c:\\users\\123iv\\appdata\\local\\programs\\python\\python38-32\\lib\\site-packages\\chardet\\escsm.py',
   'PYMODULE'),
  ('chardet.enums',
   'c:\\users\\123iv\\appdata\\local\\programs\\python\\python38-32\\lib\\site-packages\\chardet\\enums.py',
   'PYMODULE'),
  ('chardet.charsetgroupprober',
   'c:\\users\\123iv\\appdata\\local\\programs\\python\\python38-32\\lib\\site-packages\\chardet\\charsetgroupprober.py',
   'PYMODULE'),
  ('chardet.compat',
   'c:\\users\\123iv\\appdata\\local\\programs\\python\\python38-32\\lib\\site-packages\\chardet\\compat.py',
   'PYMODULE'),
  ('urllib3',
   'c:\\users\\123iv\\appdata\\local\\programs\\python\\python38-32\\lib\\site-packages\\urllib3\\__init__.py',
   'PYMODULE'),
  ('json',
   'c:\\users\\123iv\\appdata\\local\\programs\\python\\python38-32\\lib\\json\\__init__.py',
   'PYMODULE'),
  ('json.encoder',
   'c:\\users\\123iv\\appdata\\local\\programs\\python\\python38-32\\lib\\json\\encoder.py',
   'PYMODULE'),
  ('json.decoder',
   'c:\\users\\123iv\\appdata\\local\\programs\\python\\python38-32\\lib\\json\\decoder.py',
   'PYMODULE'),
  ('json.scanner',
   'c:\\users\\123iv\\appdata\\local\\programs\\python\\python38-32\\lib\\json\\scanner.py',
   'PYMODULE'),
  ('vk_api.utils',
   'c:\\users\\123iv\\appdata\\local\\programs\\python\\python38-32\\lib\\site-packages\\vk_api\\utils.py',
   'PYMODULE'),
  ('six',
   'c:\\users\\123iv\\appdata\\local\\programs\\python\\python38-32\\lib\\site-packages\\six.py',
   'PYMODULE'),
  ('vk_api.bot_longpoll',
   'c:\\users\\123iv\\appdata\\local\\programs\\python\\python38-32\\lib\\site-packages\\vk_api\\bot_longpoll.py',
   'PYMODULE'),
  ('vk_api',
   'c:\\users\\123iv\\appdata\\local\\programs\\python\\python38-32\\lib\\site-packages\\vk_api\\__init__.py',
   'PYMODULE'),
  ('vk_api.vk_api',
   'c:\\users\\123iv\\appdata\\local\\programs\\python\\python38-32\\lib\\site-packages\\vk_api\\vk_api.py',
   'PYMODULE'),
  ('jconfig',
   'c:\\users\\123iv\\appdata\\local\\programs\\python\\python38-32\\lib\\site-packages\\jconfig\\__init__.py',
   'PYMODULE'),
  ('jconfig.jconfig',
   'c:\\users\\123iv\\appdata\\local\\programs\\python\\python38-32\\lib\\site-packages\\jconfig\\jconfig.py',
   'PYMODULE'),
  ('jconfig.base',
   'c:\\users\\123iv\\appdata\\local\\programs\\python\\python38-32\\lib\\site-packages\\jconfig\\base.py',
   'PYMODULE'),
  ('vk_api.upload',
   'c:\\users\\123iv\\appdata\\local\\programs\\python\\python38-32\\lib\\site-packages\\vk_api\\upload.py',
   'PYMODULE'),
  ('vk_api.tools',
   'c:\\users\\123iv\\appdata\\local\\programs\\python\\python38-32\\lib\\site-packages\\vk_api\\tools.py',
   'PYMODULE'),
  ('vk_api.execute',
   'c:\\users\\123iv\\appdata\\local\\programs\\python\\python38-32\\lib\\site-packages\\vk_api\\execute.py',
   'PYMODULE'),
  ('vk_api.requests_pool',
   'c:\\users\\123iv\\appdata\\local\\programs\\python\\python38-32\\lib\\site-packages\\vk_api\\requests_pool.py',
   'PYMODULE'),
  ('vk_api.exceptions',
   'c:\\users\\123iv\\appdata\\local\\programs\\python\\python38-32\\lib\\site-packages\\vk_api\\exceptions.py',
   'PYMODULE'),
  ('vk_api.enums',
   'c:\\users\\123iv\\appdata\\local\\programs\\python\\python38-32\\lib\\site-packages\\vk_api\\enums.py',
   'PYMODULE'),
  ('serial',
   'c:\\users\\123iv\\appdata\\local\\programs\\python\\python38-32\\lib\\site-packages\\serial\\__init__.py',
   'PYMODULE'),
  ('serial.serialjava',
   'c:\\users\\123iv\\appdata\\local\\programs\\python\\python38-32\\lib\\site-packages\\serial\\serialjava.py',
   'PYMODULE'),
  ('serial.serialposix',
   'c:\\users\\123iv\\appdata\\local\\programs\\python\\python38-32\\lib\\site-packages\\serial\\serialposix.py',
   'PYMODULE'),
  ('serial.serialwin32',
   'c:\\users\\123iv\\appdata\\local\\programs\\python\\python38-32\\lib\\site-packages\\serial\\serialwin32.py',
   'PYMODULE'),
  ('serial.win32',
   'c:\\users\\123iv\\appdata\\local\\programs\\python\\python38-32\\lib\\site-packages\\serial\\win32.py',
   'PYMODULE'),
  ('serial.serialcli',
   'c:\\users\\123iv\\appdata\\local\\programs\\python\\python38-32\\lib\\site-packages\\serial\\serialcli.py',
   'PYMODULE'),
  ('serial.serialutil',
   'c:\\users\\123iv\\appdata\\local\\programs\\python\\python38-32\\lib\\site-packages\\serial\\serialutil.py',
   'PYMODULE'),
  ('pickle',
   'c:\\users\\123iv\\appdata\\local\\programs\\python\\python38-32\\lib\\pickle.py',
   'PYMODULE'),
  ('_compat_pickle',
   'c:\\users\\123iv\\appdata\\local\\programs\\python\\python38-32\\lib\\_compat_pickle.py',
   'PYMODULE'),
  ('struct',
   'c:\\users\\123iv\\appdata\\local\\programs\\python\\python38-32\\lib\\struct.py',
   'PYMODULE'),
  ('socket',
   'c:\\users\\123iv\\appdata\\local\\programs\\python\\python38-32\\lib\\socket.py',
   'PYMODULE'),
  ('subprocess',
   'c:\\users\\123iv\\appdata\\local\\programs\\python\\python38-32\\lib\\subprocess.py',
   'PYMODULE'),
  ('copy',
   'c:\\users\\123iv\\appdata\\local\\programs\\python\\python38-32\\lib\\copy.py',
   'PYMODULE'),
  ('setting_wind',
   'D:\\crusher_all\\python\\crusher_shaft_6_v2\\setting_wind.py',
   'PYMODULE'),
  ('pymodbus.client.sync',
   'c:\\users\\123iv\\appdata\\local\\programs\\python\\python38-32\\lib\\site-packages\\pymodbus\\client\\sync.py',
   'PYMODULE'),
  ('pymodbus.client',
   'c:\\users\\123iv\\appdata\\local\\programs\\python\\python38-32\\lib\\site-packages\\pymodbus\\client\\__init__.py',
   'PYMODULE'),
  ('pymodbus',
   'c:\\users\\123iv\\appdata\\local\\programs\\python\\python38-32\\lib\\site-packages\\pymodbus\\__init__.py',
   'PYMODULE'),
  ('pymodbus.version',
   'c:\\users\\123iv\\appdata\\local\\programs\\python\\python38-32\\lib\\site-packages\\pymodbus\\version.py',
   'PYMODULE'),
  ('pymodbus.client.common',
   'c:\\users\\123iv\\appdata\\local\\programs\\python\\python38-32\\lib\\site-packages\\pymodbus\\client\\common.py',
   'PYMODULE'),
  ('pymodbus.other_message',
   'c:\\users\\123iv\\appdata\\local\\programs\\python\\python38-32\\lib\\site-packages\\pymodbus\\other_message.py',
   'PYMODULE'),
  ('pymodbus.compat',
   'c:\\users\\123iv\\appdata\\local\\programs\\python\\python38-32\\lib\\site-packages\\pymodbus\\compat.py',
   'PYMODULE'),
  ('imp',
   'c:\\users\\123iv\\appdata\\local\\programs\\python\\python38-32\\lib\\imp.py',
   'PYMODULE'),
  ('pymodbus.device',
   'c:\\users\\123iv\\appdata\\local\\programs\\python\\python38-32\\lib\\site-packages\\pymodbus\\device.py',
   'PYMODULE'),
  ('pymodbus.interfaces',
   'c:\\users\\123iv\\appdata\\local\\programs\\python\\python38-32\\lib\\site-packages\\pymodbus\\interfaces.py',
   'PYMODULE'),
  ('pymodbus.pdu',
   'c:\\users\\123iv\\appdata\\local\\programs\\python\\python38-32\\lib\\site-packages\\pymodbus\\pdu.py',
   'PYMODULE'),
  ('pymodbus.file_message',
   'c:\\users\\123iv\\appdata\\local\\programs\\python\\python38-32\\lib\\site-packages\\pymodbus\\file_message.py',
   'PYMODULE'),
  ('pymodbus.diag_message',
   'c:\\users\\123iv\\appdata\\local\\programs\\python\\python38-32\\lib\\site-packages\\pymodbus\\diag_message.py',
   'PYMODULE'),
  ('pymodbus.register_write_message',
   'c:\\users\\123iv\\appdata\\local\\programs\\python\\python38-32\\lib\\site-packages\\pymodbus\\register_write_message.py',
   'PYMODULE'),
  ('pymodbus.register_read_message',
   'c:\\users\\123iv\\appdata\\local\\programs\\python\\python38-32\\lib\\site-packages\\pymodbus\\register_read_message.py',
   'PYMODULE'),
  ('pymodbus.bit_write_message',
   'c:\\users\\123iv\\appdata\\local\\programs\\python\\python38-32\\lib\\site-packages\\pymodbus\\bit_write_message.py',
   'PYMODULE'),
  ('pymodbus.bit_read_message',
   'c:\\users\\123iv\\appdata\\local\\programs\\python\\python38-32\\lib\\site-packages\\pymodbus\\bit_read_message.py',
   'PYMODULE'),
  ('pymodbus.transaction',
   'c:\\users\\123iv\\appdata\\local\\programs\\python\\python38-32\\lib\\site-packages\\pymodbus\\transaction.py',
   'PYMODULE'),
  ('pymodbus.framer.binary_framer',
   'c:\\users\\123iv\\appdata\\local\\programs\\python\\python38-32\\lib\\site-packages\\pymodbus\\framer\\binary_framer.py',
   'PYMODULE'),
  ('pymodbus.framer',
   'c:\\users\\123iv\\appdata\\local\\programs\\python\\python38-32\\lib\\site-packages\\pymodbus\\framer\\__init__.py',
   'PYMODULE'),
  ('pymodbus.framer.tls_framer',
   'c:\\users\\123iv\\appdata\\local\\programs\\python\\python38-32\\lib\\site-packages\\pymodbus\\framer\\tls_framer.py',
   'PYMODULE'),
  ('pymodbus.framer.socket_framer',
   'c:\\users\\123iv\\appdata\\local\\programs\\python\\python38-32\\lib\\site-packages\\pymodbus\\framer\\socket_framer.py',
   'PYMODULE'),
  ('pymodbus.framer.rtu_framer',
   'c:\\users\\123iv\\appdata\\local\\programs\\python\\python38-32\\lib\\site-packages\\pymodbus\\framer\\rtu_framer.py',
   'PYMODULE'),
  ('pymodbus.framer.ascii_framer',
   'c:\\users\\123iv\\appdata\\local\\programs\\python\\python38-32\\lib\\site-packages\\pymodbus\\framer\\ascii_framer.py',
   'PYMODULE'),
  ('pymodbus.exceptions',
   'c:\\users\\123iv\\appdata\\local\\programs\\python\\python38-32\\lib\\site-packages\\pymodbus\\exceptions.py',
   'PYMODULE'),
  ('pymodbus.factory',
   'c:\\users\\123iv\\appdata\\local\\programs\\python\\python38-32\\lib\\site-packages\\pymodbus\\factory.py',
   'PYMODULE'),
  ('pymodbus.mei_message',
   'c:\\users\\123iv\\appdata\\local\\programs\\python\\python38-32\\lib\\site-packages\\pymodbus\\mei_message.py',
   'PYMODULE'),
  ('pymodbus.utilities',
   'c:\\users\\123iv\\appdata\\local\\programs\\python\\python38-32\\lib\\site-packages\\pymodbus\\utilities.py',
   'PYMODULE'),
  ('pymodbus.payload',
   'c:\\users\\123iv\\appdata\\local\\programs\\python\\python38-32\\lib\\site-packages\\pymodbus\\payload.py',
   'PYMODULE'),
  ('pymodbus.constants',
   'c:\\users\\123iv\\appdata\\local\\programs\\python\\python38-32\\lib\\site-packages\\pymodbus\\constants.py',
   'PYMODULE'),
  ('PyQt5',
   'c:\\users\\123iv\\appdata\\local\\programs\\python\\python38-32\\lib\\site-packages\\PyQt5\\__init__.py',
   'PYMODULE')])
